Sampling
…
 It has 2400 rows, telling us that the bowl contains 2400 equally sized balls, white and red. Now were going to use the rep_sample_n() function included in the moderndive package. This function allows us to take repeated, or replicated, samples of size n

# assign the result to "virtual_shovel"
virtual_shovel <- bowl %>% 
  rep_sample_n(size = 50)

virtual_shovel

## # A tibble: 50 x 3
## # Groups:   replicate [1]
##    replicate ball_ID color
##        <int>   <int> <chr>
##  1         1    1390 red  
##  2         1    1413 white
##  3         1    2013 white
##  4         1    1930 white
##  5         1    1503 white
##  6         1     116 white
##  7         1     816 red  
##  8         1     176 white
##  9         1    1562 red  
## 10         1     138 red  
## # ... with 40 more rows

 What does the replicate variable indicate? In virtual_shovels case, replicate is equal to 1 for all 50 rows. This is telling us that these 50 rows correspond to the first repeated/replicated use of the shovel, in our case our first sample

For each of our 50 sampled balls, lets identify if it is red or not using a test for equality with ==. Lets create a new Boolean variable is_red using the mutate() function

virtual_shovel %>% 
  mutate(is_red = (color == "red"))

## # A tibble: 50 x 4
## # Groups:   replicate [1]
##    replicate ball_ID color is_red
##        <int>   <int> <chr> <lgl> 
##  1         1    1390 red   TRUE  
##  2         1    1413 white FALSE 
##  3         1    2013 white FALSE 
##  4         1    1930 white FALSE 
##  5         1    1503 white FALSE 
##  6         1     116 white FALSE 
##  7         1     816 red   TRUE  
##  8         1     176 white FALSE 
##  9         1    1562 red   TRUE  
## 10         1     138 red   TRUE  
## # ... with 40 more rows
…
 Lets now take virtual_samples and compute the resulting 33 proportions red by using additionally group_by() of the replicate variable

# assign the result to a variable called "virtual_prop_red"
virtual_prop_red <- virtual_samples %>% 
  group_by(replicate) %>% 
  summarize(red = sum(color == "red")) %>% 
  mutate(prop_red = red / 50)

virtual_prop_red

## # A tibble: 33 x 3
##    replicate   red prop_red
##        <int> <int>    <dbl>
##  1         1    17     0.34
##  2         2    13     0.26
##  3         3    15     0.3 
##  4         4    24     0.48
##  5         5    20     0.4 
##  6         6    19     0.38
##  7         7    25     0.5 
##  8         8    15     0.3 
##  9         9    21     0.42
## 10        10    16     0.32
## # ... with 23 more rows
…
